<?xml version="1.0" encoding="UTF-8" standalone="no"?>
<!-- Created with Inkscape (http://www.inkscape.org/) -->

<svg
   xmlns:dc="http://purl.org/dc/elements/1.1/"
   xmlns:cc="http://creativecommons.org/ns#"
   xmlns:rdf="http://www.w3.org/1999/02/22-rdf-syntax-ns#"
   xmlns:svg="http://www.w3.org/2000/svg"
   xmlns="http://www.w3.org/2000/svg"
   xmlns:sodipodi="http://sodipodi.sourceforge.net/DTD/sodipodi-0.dtd"
   xmlns:inkscape="http://www.inkscape.org/namespaces/inkscape"
   width="463.32861"
   height="410.39941"
   viewBox="0 0 463.3286 410.39942"
   id="svg3538"
   version="1.1"
   inkscape:version="0.91 r13725"
   sodipodi:docname="newsletterIconFINAL.svg"
   inkscape:export-filename="/home/chkr/wikidata/tcb/shirt/newsletterIcon.png"
   inkscape:export-xdpi="111"
   inkscape:export-ydpi="111">
  <defs
     id="defs3540">
    <clipPath
       clipPathUnits="userSpaceOnUse"
       id="clipPath3467">
      <path
         style="fill:none;fill-rule:evenodd;stroke:#000000;stroke-width:0.88196176px;stroke-linecap:butt;stroke-linejoin:miter;stroke-opacity:1"
         d="m 791.73112,-59.683185 5.49788,146.687953 357.7501,-12.102776 -5.2179,-150.833241 45.3541,-20.850507 -145.8697,-164.276984 -266.72924,94.86912 -17.31107,95.531476 z"
         id="path3469"
         inkscape:connector-curvature="0"
         sodipodi:nodetypes="ccccccccc" />
    </clipPath>
  </defs>
  <sodipodi:namedview
     id="base"
     pagecolor="#ffffff"
     bordercolor="#666666"
     borderopacity="1.0"
     inkscape:pageopacity="0.0"
     inkscape:pageshadow="2"
     inkscape:zoom="0.98994949"
     inkscape:cx="553.4773"
     inkscape:cy="173.59616"
     inkscape:document-units="px"
     inkscape:current-layer="layer1"
     showgrid="false"
     fit-margin-top="0"
     fit-margin-left="0"
     fit-margin-right="0"
     fit-margin-bottom="0"
     units="px"
     inkscape:window-width="1920"
     inkscape:window-height="1015"
     inkscape:window-x="0"
     inkscape:window-y="0"
     inkscape:window-maximized="1" />
  <metadata
     id="metadata3543">
    <rdf:RDF>
      <cc:Work
         rdf:about="">
        <dc:format>image/svg+xml</dc:format>
        <dc:type
           rdf:resource="http://purl.org/dc/dcmitype/StillImage" />
        <dc:title></dc:title>
      </cc:Work>
    </rdf:RDF>
  </metadata>
  <g
     inkscape:label="Layer 1"
     inkscape:groupmode="layer"
     id="layer1"
     transform="translate(-125.47854,-67.162495)">
    <g
       transform="matrix(1.133836,0,0,1.133836,-741.95954,327.4448)"
       style="display:inline"
       id="g3471">
      <path
         inkscape:connector-curvature="0"
         id="path4460"
         d="M 793.51339,-71.617709 970.96733,-174.07079 1146.6815,-75.097198 970.96733,27.547731 Z"
         style="fill:#b0bacd;fill-opacity:1;fill-rule:evenodd;stroke:#000000;stroke-width:4.40980864;stroke-linecap:round;stroke-linejoin:bevel;stroke-miterlimit:4;stroke-dasharray:none;stroke-opacity:1" />
      <g
         clip-path="url(#clipPath3467)"
         transform="matrix(0.99929836,0.03745378,-0.03745378,0.99929836,-2.267585,-41.357025)"
         id="g5664">
        <path
           inkscape:connector-curvature="0"
           id="path4274-5-4-4"
           d="m 906.35292,-41.42837 c -1.00055,-4.616479 -2.17426,-6.153889 -14.69419,-18.966751 -12.51992,-12.812856 -36.67345,-19.049269 -51.10818,-22.156945 -14.43471,-3.107684 -21.62482,-1.104431 -32.88467,-0.494524 -11.25984,0.609891 -34.50592,4.274988 -34.50592,4.274988 l -1.28167,1.653068 c 0,0 9.0062,5.494968 17.18428,10.188087 8.17808,4.693112 23.46389,13.416761 31.99657,17.763385 8.53266,4.346631 11.3183,6.143863 18.91229,8.799644 7.59399,2.655766 19.49981,5.520721 26.64211,6.445231 7.14232,0.924496 10.67049,0.561539 15.79753,0.317401 5.12703,-0.24416 11.07817,-1.062703 14.89687,-1.724652 3.81871,-0.66195 6.55498,-0.38406 8.04385,-1.866608 1.48887,-1.482556 2.00168,0.384161 1.00116,-4.232317 z"
           style="fill:#ffe25a;fill-opacity:1;fill-rule:evenodd;stroke:#000000;stroke-width:0.7264508px;stroke-linecap:butt;stroke-linejoin:miter;stroke-opacity:1" />
        <path
           inkscape:connector-curvature="0"
           id="path4276-2-0-6"
           d="m 823.82392,-47.698374 c -3.09282,-2.732908 -11.48688,3.211123 -18.02847,5.9469 -6.5416,2.73577 -12.60856,6.327699 -19.82979,10.424118 -7.22124,4.09642 -23.39629,14.28134 -23.39629,14.28134 0,0 10.87625,0.11937 16.77046,0.132076 5.89421,0.01271 13.01387,-0.50144 18.59426,-0.06632 5.5804,0.435144 7.42102,1.303819 14.80009,2.3763 7.37907,1.072481 21.24778,3.577465 29.501,3.840695 8.25323,0.263229 12.98042,-0.157597 19.7519,-1.299446 6.77149,-1.141843 14.89808,-3.771522 20.64133,-5.677475 5.74325,-1.90596 10.76082,-3.307305 13.87813,-5.421676 3.11731,-2.114364 4.52776,-3.903998 5.25618,-5.628032 0.72843,-1.72405 1.15833,-1.9237 0.17021,-3.524761 -0.98808,-1.601054 -3.5514,-2.725658 -7.09567,-3.140447 -3.54427,-0.414796 -8.6957,2.162041 -13.42158,2.493215 -4.72589,0.331167 -7.84354,0.368551 -14.75954,-0.64604 -6.91599,-1.014612 -19.41521,-4.101178 -26.33804,-6.657536 -6.92283,-2.556344 -13.40141,-4.699999 -16.49421,-7.432921 z"
           style="fill:#ffe25a;fill-opacity:1;fill-rule:evenodd;stroke:#000000;stroke-width:1.60869825;stroke-linecap:butt;stroke-linejoin:miter;stroke-miterlimit:4;stroke-dasharray:none;stroke-opacity:1" />
        <path
           inkscape:connector-curvature="0"
           id="path4278-9-5-2"
           d="m 895.9291,-15.530792 c 1.42689,1.899647 1.55736,3.062752 0.34935,6.6527559 -1.20803,3.5899962 -5.87353,7.8862334 -10.65893,11.8567446 -4.7854,3.9705112 -11.82913,8.3615285 -18.33404,11.1710845 -6.50489,2.809562 -12.86946,4.224245 -20.34376,5.654845 -7.4743,1.430599 -14.34634,2.22716 -24.44676,2.665994 -10.10041,0.438835 -26.35369,-0.129569 -36.16056,-0.748426 -9.80688,-0.618877 -16.6356,-1.354859 -22.58681,-2.37739 -5.95122,-1.022523 -13.06422,-3.118486 -13.06422,-3.118486 0,0 11.16393,-7.3374359 15.16546,-9.8535636 4.00152,-2.5161349 4.27794,-3.1239853 8.77531,-5.3376988 4.49737,-2.2137062 11.94734,-4.9673978 18.54365,-7.1794331 19.2634,-11.5751505 31.92898,-4.7264775 49.60872,-4.5897085 6.02713,0.8911078 12.51319,-0.861041 18.88056,-1.02827 6.36737,-0.167229 16.58178,-4.856795 20.87219,-5.665764 5.70855,-1.339996 9.28314,-3.270002 13.39984,1.897316 z"
           style="fill:#ffe25a;fill-opacity:1;fill-rule:evenodd;stroke:#000000;stroke-width:0.7264508px;stroke-linecap:butt;stroke-linejoin:miter;stroke-opacity:1" />
        <path
           inkscape:connector-curvature="0"
           id="path4280-7-9-6"
           d="m 888.31466,1.3163639 c 2.19245,-0.34325527 8.49899,1.1567058 10.48631,3.1600609 1.98732,2.0034786 2.90741,0.6449866 1.53632,5.1713779 -1.37111,4.5264133 -12.49281,9.3493053 -18.48059,13.1970823 -5.98778,3.847756 -10.99439,7.590568 -17.33419,9.979938 -6.33982,2.389369 -12.11982,2.789905 -20.3201,4.179184 -8.20027,1.389271 -14.89487,2.986097 -28.9364,3.874242 -14.04152,0.888151 -45.43177,0.859958 -55.46274,-0.306548 -10.03096,-1.166469 -4.24953,-0.962845 -4.24953,-0.962845 0,0 4.78064,-4.315459 7.85778,-6.432627 3.07713,-2.11719 4.4912,-2.683183 7.21793,-4.769121 6.3204,-5.542659 9.68776,-6.923163 17.65724,-6.115807 7.32901,0.578429 25.62965,1.208051 35.50004,0.693811 9.87037,-0.514225 16.42076,-1.465186 23.72194,-2.980693 7.30121,-1.5155 13.55578,-3.063181 20.02816,-5.884774 6.4724,-2.821571 15.12896,-8.7770512 18.49185,-11.0561089 3.36289,-2.27907221 0.0933,-1.403946 2.28598,-1.7471722 z"
           style="fill:#ffe25a;fill-opacity:1;fill-rule:evenodd;stroke:#000000;stroke-width:0.7264508px;stroke-linecap:butt;stroke-linejoin:miter;stroke-opacity:1" />
        <path
           inkscape:connector-curvature="0"
           id="path4302-7-4-7"
           d="m 1041.0831,-4.4149477 c 1.3574,-2.7446473 5.3401,-4.3384585 9.6635,-5.1478119 4.3234,-0.8093534 9.5654,0.7828088 15.3321,1.8386251 5.7667,1.0558091 12.1559,2.8833268 19.1545,4.7445809 6.9985,1.8612613 16.5929,4.2694166 22.8133,6.4872781 6.2203,2.2178687 13.8115,5.8424222 14.6005,6.3102202 0.789,0.4677983 19.8374,8.9885063 19.8374,8.9885063 0,0 -25.2631,-2.298643 -34.8089,-2.08232 -9.5459,0.216315 -14.5176,3.329309 -22.2949,2.351085 -7.7774,-0.97821 -15.8941,-5.866243 -23.076,-8.56245 -7.1817,-2.6962004 -16.9771,-3.8820369 -20.0189,-7.6031721 -3.0418,-3.72109878 -2.5601,-4.5799016 -1.2026,-7.3245416 z"
           style="fill:#ffe25a;fill-opacity:1;fill-rule:evenodd;stroke:#000000;stroke-width:0.7264508px;stroke-linecap:butt;stroke-linejoin:miter;stroke-opacity:1" />
        <path
           inkscape:connector-curvature="0"
           id="path4304-68-6-5"
           d="m 1163.1198,41.917625 c 0,0 -8.7415,3.190441 -15.4967,2.75582 -6.7552,-0.434584 -15.6512,-4.838046 -23.7309,-7.457801 -8.0797,-2.619756 -18.1542,-7.936897 -24.7419,-8.270519 -6.5877,-0.333623 -6.9635,2.611097 -13.1352,3.089493 -6.1718,0.478426 -14.6732,-4.022423 -22.3106,-6.615758 -7.6375,-2.593342 -20.0519,-5.383973 -23.4558,-9.000943 -3.4039,-3.616969 -2.0222,-2.104811 -1.4078,-4.460342 0.6143,-2.3555242 0.3222,-7.5826281 16.7505,-3.2707359 16.4283,4.3119069 18.7385,8.8681189 30.2966,10.6116229 11.5582,1.743503 13.5393,-3.479242 27.4279,-0.936446 13.8886,2.542774 51.4406,23.672858 51.4406,23.672858 z"
           style="fill:#ffe25a;fill-opacity:1;fill-rule:evenodd;stroke:#000000;stroke-width:0.7264508px;stroke-linecap:butt;stroke-linejoin:miter;stroke-opacity:1" />
        <path
           inkscape:connector-curvature="0"
           id="path4306-1-9-6"
           d="m 1041.5817,23.162918 c 0.9789,0.687034 8.9176,4.940192 13.9437,8.49715 5.0262,3.55695 17.5989,8.08783 18.1366,8.619876 0.5377,0.532052 22.7547,7.305632 24.0171,8.054101 1.2625,0.74847 15.8613,3.502961 21.7673,5.014007 5.906,1.511054 8.1331,3.64241 13.7067,3.860803 5.5736,0.218378 15.1775,-2.22355 18.858,-3.748849 3.6806,-1.5253 3.8878,-2.600404 3.8878,-2.600404 -4.8339,-9.020012 -1.3033,-4.862796 -8.1473,-5.683431 -9.8935,-1.137331 -40.5041,-14.840881 -46.8223,-16.346261 -6.3183,-1.505359 -9.0652,2.722912 -15.2592,3.426755 -6.194,0.703859 -36.2376,-12.435449 -42.0487,-13.210064 -5.811,-0.774614 -3.0187,3.429255 -2.0397,4.116303 z"
           style="fill:#ffe25a;fill-opacity:1;fill-rule:evenodd;stroke:#000000;stroke-width:0.7264508px;stroke-linecap:butt;stroke-linejoin:miter;stroke-opacity:1" />
        <path
           inkscape:connector-curvature="0"
           id="path4310-20-2-9"
           d="m 1045.5177,-22.68679 c 3.2273,-3.071834 11.7803,-4.601594 17.6486,-6.385386 5.8682,-1.783793 10.6365,-3.773607 17.502,-4.339527 6.8656,-0.565927 14.1806,0.515141 23.2293,1.828571 9.0487,1.313438 22.9535,4.496578 30.8683,6.570777 7.9147,2.074198 10.8755,2.558479 16.7343,5.229254 5.8588,2.670767 17.9607,11.0749308 17.9607,11.0749308 0,0 -4.4479,1.507429 -9.3355,1.716625 -4.8877,0.2091815 -12.6444,-1.7469325 -19.7688,-1.909701 -7.1244,-0.1627686 -15.3375,-0.1792954 -22.8675,1.1585219 -7.53,1.3378099 -14.9115,6.5187625 -21.9568,6.81704315 -7.0452,0.29828795 -13.3938,-2.88379895 -18.8681,-4.14829545 -5.4742,-1.2646782 -9.6087,-2.6750533 -13.9874,-3.3873819 -4.3786,-0.7123213 -9.5652,-1.2052036 -12.1816,-1.0371538 -2.6164,0.1680426 -2.9011,1.2931333 -4.6944,0.5926022 -1.7934,-0.700531 -3.0714,-3.7807399 -3.3593,-6.4338329 -0.2881,-2.653093 -0.1512,-4.275214 3.0762,-7.347047 z"
           style="fill:#ffe25a;fill-opacity:1;fill-rule:evenodd;stroke:#000000;stroke-width:1.60869825;stroke-linecap:butt;stroke-linejoin:miter;stroke-miterlimit:4;stroke-dasharray:none;stroke-opacity:1" />
        <path
           inkscape:connector-curvature="0"
           id="path4312-3-2-8"
           d="m 1043.3931,-37.809309 c 2.6904,-5.848059 12.9275,-8.365306 21.6479,-11.692196 8.7205,-3.326891 20.7426,-5.775611 30.5438,-7.27122 9.8012,-1.495603 18.8135,-2.507825 28.0233,-1.940728 9.2098,0.567118 19.865,2.665297 26.7709,5.207947 6.9059,2.542651 14.7054,8.291826 14.7054,8.291826 0,0 -4.1676,2.971045 -7.9389,4.037548 -3.7714,1.066502 -8.1247,-0.590917 -14.5612,1.177758 -6.4365,1.768683 -13.3582,12.999648 -22.8462,11.195093 -9.488,-1.804554 -11.0893,-2.333294 -17.1323,-3.119147 -6.0429,-0.78586 -14.0256,-2.088967 -20.6951,-1.829791 -6.6695,0.259168 -12.303,2.866059 -18.5871,4.247688 -6.2842,1.381601 -14.4245,4.405336 -16.9639,5.397479 -2.5394,0.992142 -5.6571,-7.854205 -2.9666,-13.702257 z"
           style="fill:#ffe25a;fill-opacity:1;fill-rule:evenodd;stroke:#000000;stroke-width:1.60869825;stroke-linecap:butt;stroke-linejoin:miter;stroke-miterlimit:4;stroke-dasharray:none;stroke-opacity:1" />
        <path
           inkscape:connector-curvature="0"
           id="path4314-2-4-7"
           d="m 1032.428,-70.756307 c 4.8843,-2.5746 9.1884,-10.272748 13.6111,-14.324295 4.4227,-4.051539 9.4487,-6.198259 14.1126,-8.695049 4.6639,-2.496789 8.336,-3.109238 14.2293,-5.312556 5.8933,-2.203323 14.6094,-4.128193 21.2258,-7.364663 6.6164,-3.23648 12.7071,-7.80997 17.5213,-12.64586 4.8141,-4.83587 8.4145,-11.31664 11.244,-15.72767 4.4635,-5.45407 2.5189,-10.75939 9.2904,-10.27431 0,0 -1.83,15.40881 -4.5992,22.8663 -2.7692,7.45749 -6.574,14.41729 -11.9699,21.26897 -5.396,6.851684 -11.8986,14.255409 -17.5353,18.178287 -5.6368,3.922878 -7.6821,5.183125 -13.8335,7.522863 -6.1514,2.339731 -17.3152,2.980191 -26.2619,6.03337 -8.9467,3.053185 -22.4154,11.966983 -22.5205,14.374027 -0.1051,2.407051 -4.9523,-1.324291 -6.1826,-4.092032 -1.2302,-2.767756 -3.2158,-9.232797 1.6684,-11.807382 z"
           style="fill:#ffe25a;fill-opacity:1;fill-rule:evenodd;stroke:#000000;stroke-width:1.60869825;stroke-linecap:butt;stroke-linejoin:miter;stroke-miterlimit:4;stroke-dasharray:none;stroke-opacity:1" />
        <path
           inkscape:connector-curvature="0"
           id="path4316-87-7-2"
           d="m 1086.2067,-75.12925 c 7.3027,-2.685326 10.7794,-6.675415 18.6079,-9.442342 7.8285,-2.76692 17.3688,-4.883035 28.3164,-6.032455 10.9477,-1.149434 37.095,0.02521 37.095,0.02521 0,0 -13.5763,6.774975 -21.2444,10.651788 -7.6681,3.876828 -18.2512,8.71871 -24.7579,12.620978 -6.5068,3.902283 -6.8618,6.176786 -12.2883,7.863496 -5.4264,1.686709 -12.0676,2.095476 -19.4371,3.050337 -7.3695,0.954869 -16.8591,4.440365 -26.294,6.727312 -9.3336,1.030856 -25.7418,11.525774 -29.8965,6.110287 -0.4001,-2.092963 -2.3062,-5.005936 0.9569,-10.897808 3.263,-5.891893 15.5526,-11.224689 23.8347,-14.661215 8.2822,-3.436526 17.8047,-3.330261 25.1073,-6.015579 z"
           style="fill:#ffe25a;fill-opacity:1;fill-rule:evenodd;stroke:#000000;stroke-width:1.60869825;stroke-linecap:butt;stroke-linejoin:miter;stroke-miterlimit:4;stroke-dasharray:none;stroke-opacity:1" />
        <path
           inkscape:connector-curvature="0"
           id="path4318-4-7-8"
           d="m 1096.4725,-109.35201 c 7.1197,-6.03337 9.6651,-15.40937 14.9514,-22.7005 5.2863,-7.29111 15.4499,-15.60098 16.7222,-21.01079 1.2723,-5.4098 -1.3548,-6.34839 -1.3548,-6.34839 0,0 -13.763,3.52635 -19.8816,6.55444 -6.1186,3.02808 -10.1598,8.25635 -16.5215,11.31915 -6.3617,3.06278 -20.8927,5.74171 -21.3605,6.53074 -0.4678,0.78904 -19.1879,10.59966 -27.8975,21.43409 -8.7095,10.83442 -13.1775,16.717715 -18.7814,22.765112 -5.6038,6.047405 -7.189,13.701836 -5.9777,17.996787 1.2114,4.294959 3.1105,4.339119 5.973,5.034137 2.8624,0.695017 5.2413,0.379628 9.6161,-2.190046 4.3749,-2.569667 9.0799,-11.438432 13.7633,-15.300441 4.6834,-3.861994 9.4714,-6.136519 13.5806,-8.157388 4.1092,-2.020863 4.6117,-1.645048 10.8324,-4.241529 6.2207,-2.596472 19.2162,-5.652012 26.336,-11.685372 z"
           style="fill:#ffe25a;fill-opacity:1;fill-rule:evenodd;stroke:#000000;stroke-width:1.60869825;stroke-linecap:butt;stroke-linejoin:miter;stroke-miterlimit:4;stroke-dasharray:none;stroke-opacity:1" />
        <path
           inkscape:connector-curvature="0"
           id="path4320-6-5-2"
           d="m 992.06206,-82.531479 c 2.21659,0.836668 0.80339,2.328893 6.51182,-0.19155 5.70842,-2.520428 14.63772,-13.059144 21.49822,-22.231491 6.8604,-9.17236 14.0457,-23.36631 18.6419,-32.88243 4.5962,-9.51612 7.9468,-16.69746 9.5972,-23.74208 1.6505,-7.04461 0.8569,-16.55403 1.354,-17.75223 0.4971,-1.1982 3.0922,-28.23855 3.0922,-28.23855 0,0 -12.9843,7.87109 -13.5163,8.40877 -0.532,0.53766 -8.8538,14.95081 -13.9809,21.78294 -5.1271,6.83213 -11.2379,11.75706 -16.6692,19.12275 -5.4313,7.36568 -11.99521,17.43315 -15.53646,25.1262 -3.54124,7.69305 -5.2574,12.63544 -6.46922,20.2647 -1.21181,7.62928 -2.31265,20.059519 -0.15131,25.076788 2.16136,5.017268 3.41145,4.419523 5.62805,5.256183 z"
           style="fill:#ffe25a;fill-opacity:1;fill-rule:evenodd;stroke:#000000;stroke-width:1.60869825;stroke-linecap:butt;stroke-linejoin:miter;stroke-miterlimit:4;stroke-dasharray:none;stroke-opacity:1" />
        <path
           inkscape:connector-curvature="0"
           id="path4322-3-4-9"
           d="m 930.87002,-99.829005 c -2.94857,-6.121145 -4.28018,-10.910985 -9.44234,-18.607895 -5.16216,-7.69691 -3.47237,-16.94119 -3.53123,-25.34058 -0.0588,-8.39938 2.29843,-19.05757 3.07978,-24.62023 0.78134,-5.56266 0.85535,-3.58051 1.36964,-8.78538 0.51429,-5.20485 0.9516,-22.46956 0.9516,-22.46956 0,0 8.1457,6.23389 11.86362,12.3655 3.71793,6.13161 5.19201,18.16039 8.27789,24.52906 3.08586,6.36864 6.51,9.41039 9.03997,13.89055 2.52998,4.48018 7.58307,6.62913 6.2344,12.86705 -1.34867,6.23791 0.4975,15.9296 -0.10957,21.0493 -0.60707,5.1197 2.88302,24.87706 3.01725,23.329662 0.13422,-1.547413 -2.88908,7.031426 -3.29263,8.071827 -14.75761,9.5806 -18.18972,-2.792564 -27.45838,-16.279304 z"
           style="fill:#ffe25a;fill-opacity:1;fill-rule:evenodd;stroke:#000000;stroke-width:1.60869825;stroke-linecap:butt;stroke-linejoin:miter;stroke-miterlimit:4;stroke-dasharray:none;stroke-opacity:1" />
        <path
           inkscape:connector-curvature="0"
           id="path4324-8-8-9"
           d="m 958.82497,-138.7069 c 0.3128,-0.34774 2.99724,-23.30374 7.53005,-33.9252 4.53283,-10.62146 12.4679,-20.02565 19.1672,-28.73208 6.69931,-8.70643 20.76778,-23.51765 20.76778,-23.51765 0,0 3.3673,3.54772 3.271,11.74995 -0.096,8.20224 -6.3961,27.58508 -10.76289,35.42098 -4.36684,7.83587 -6.44463,6.44762 -11.10303,12.61209 -4.65841,6.16448 -12.08061,16.53659 -16.00989,24.84553 -3.92926,8.30894 -7.29187,15.54299 -7.83203,24.36206 -0.5402,8.81906 7.30033,22.025344 5.14423,26.936718 -2.15611,4.911366 -2.40481,2.877253 -4.04555,2.506851 -1.64073,-0.370403 -1.08145,0.215865 -2.88669,-4.484032 -1.80524,-4.699897 -3.48299,-16.549647 -3.99904,-24.551557 -0.51605,-8.0019 0.44606,-22.87593 0.75886,-23.22366 z"
           style="fill:#ffe25a;fill-opacity:1;fill-rule:evenodd;stroke:#000000;stroke-width:1.60869825;stroke-linecap:butt;stroke-linejoin:miter;stroke-miterlimit:4;stroke-dasharray:none;stroke-opacity:1" />
        <path
           inkscape:connector-curvature="0"
           id="path4326-0-1-6"
           d="m 969.27807,-89.427916 c -1.13283,5.910571 3.08843,4.425851 6.34721,4.402895 3.25877,-0.02296 10.16637,-4.607114 9.62297,-6.878058 -0.5434,-2.270921 -1.42646,-12.437901 1.28102,-20.630521 2.70749,-8.1926 3.19356,-13.47643 6.12317,-19.83004 2.92958,-6.3536 7.83546,-12.98433 10.56516,-18.62698 2.7296,-5.64264 -1.5637,-8.94661 -0.3008,-15.32088 1.2628,-6.37428 9.4506,-21.69622 9.4506,-21.69622 0,0 -10.9301,9.21385 -11.3979,10.00288 -0.4678,0.78904 -9.04399,8.09679 -13.87429,14.49575 -4.8303,6.39895 -11.54112,15.39948 -15.16089,23.6168 -3.61977,8.21732 -8.45575,15.69373 -8.17473,24.15888 0.28102,8.46515 6.65129,20.394916 5.51848,26.305494 z"
           style="fill:#ffe25a;fill-opacity:1;fill-rule:evenodd;stroke:#000000;stroke-width:1.60869825;stroke-linecap:butt;stroke-linejoin:miter;stroke-miterlimit:4;stroke-dasharray:none;stroke-opacity:1" />
        <path
           inkscape:connector-curvature="0"
           id="path4328-4-2-0"
           d="m 1047.6575,-154.16822 c 5.3402,-5.89911 24.13,-12.47392 24.13,-12.47392 0,0 -4.8638,14.5695 -9.7258,23.23933 -4.8619,8.66984 -13.3306,18.89519 -20.1782,27.91936 -6.8477,9.02418 -14.9152,20.861019 -20.8794,26.224049 -5.9642,5.363016 -7.7163,9.649962 -11.7746,10.725457 -16.99711,7.082511 20.4152,-34.764856 28.8924,-57.672116 4.0775,-8.14389 4.1954,-12.06305 9.5356,-17.96216 z"
           style="fill:#ffe25a;fill-opacity:1;fill-rule:evenodd;stroke:#000000;stroke-width:1.60869825;stroke-linecap:butt;stroke-linejoin:miter;stroke-miterlimit:4;stroke-dasharray:none;stroke-opacity:1" />
        <path
           inkscape:connector-curvature="0"
           id="path4330-9-8-2"
           d="m 824.62108,-171.35203 c 0,0 14.85105,5.94195 20.62088,8.38658 5.76981,2.44465 6.894,3.47602 14.03355,6.18735 7.13955,2.71132 19.47871,4.22888 29.02638,9.31774 9.54767,5.08886 21.60923,15.65839 27.01308,21.34717 5.40386,5.68879 3.84516,4.41268 7.32217,10.31283 3.477,5.90015 10.03217,18.662484 12.31098,25.640509 2.2788,6.978039 2.7502,14.427036 2.84938,15.33895 0.0992,0.911906 -11.23347,4.367575 -19.17368,3.561737 -7.94019,-0.805837 -19.16388,-6.621802 -26.29629,-10.685001 -7.13242,-4.063206 -11.24448,-7.149445 -16.61589,-12.623673 -5.37142,-5.474242 -9.95986,-13.163132 -14.83146,-20.310022 -4.87161,-7.14689 -10.90341,-16.68993 -14.33997,-22.57795 -3.43655,-5.88803 -3.12233,-6.75794 -6.67288,-12.48717 -3.55056,-5.72923 -15.24625,-21.40905 -15.24625,-21.40905 z"
           style="fill:#ffe25a;fill-opacity:1;fill-rule:evenodd;stroke:#000000;stroke-width:1.60869825;stroke-linecap:butt;stroke-linejoin:miter;stroke-miterlimit:4;stroke-dasharray:none;stroke-opacity:1" />
        <path
           inkscape:connector-curvature="0"
           id="path4332-7-9-7"
           d="m 804.09106,-138.52261 c 6.12882,-0.22155 22.97486,8.95023 31.67979,11.31742 8.70491,2.3672 15.06462,-3.48794 20.12495,3.82707 5.06033,7.315 13.01873,21.7647 19.59378,28.465348 6.57506,6.700652 15.11523,11.083758 16.65083,13.284228 1.5356,2.200441 23.68691,9.945017 26.48341,10.36938 2.79651,0.424378 5.58978,6.514186 3.82674,9.733402 -1.76304,3.219208 -6.03071,2.001016 -11.3464,2.230596 -5.3157,0.229588 -15.14424,1.859591 -20.24222,-2.190365 -5.09795,-4.049942 -7.37044,-6.036843 -13.54769,-9.524983 -6.17724,-3.488119 -14.64042,-5.618864 -19.5106,-6.661953 -4.87019,-1.043082 -12.19754,-8.689863 -18.8015,-15.41238 -6.60395,-6.722532 -13.64558,-17.947743 -19.98608,-25.285553 -6.3405,-7.33778 -17.81291,-18.87851 -17.81291,-18.87851 0,0 -3.24092,-1.05214 2.8879,-1.2737 z"
           style="fill:#ffe25a;fill-opacity:1;fill-rule:evenodd;stroke:#000000;stroke-width:1.60869825;stroke-linecap:butt;stroke-linejoin:miter;stroke-miterlimit:4;stroke-dasharray:none;stroke-opacity:1" />
        <path
           inkscape:connector-curvature="0"
           id="path4334-97-3-6"
           d="m 814.80829,-122.78454 c -8.00832,-5.04545 -15.19807,-3.98894 -19.84428,-4.30048 -4.64622,-0.31154 -7.61086,0.60636 -7.61086,0.60636 0,0 2.79965,1.97339 5.81516,4.94057 3.01552,2.96718 7.09643,9.43337 11.71145,13.34164 4.61503,3.90828 11.22275,5.72337 15.75137,9.765092 4.52861,4.041733 7.12204,11.76049 11.08584,14.037114 8.2786,0.04555 10.49307,3.107481 23.94163,5.663316 -8.252,-4.270085 -14.8364,-11.3943 -18.48588,-15.225268 -3.64949,-3.83096 -14.35612,-23.782894 -22.36443,-28.828344 z"
           style="fill:#ffe25a;fill-opacity:1;fill-rule:evenodd;stroke:#000000;stroke-width:1.60869825;stroke-linecap:butt;stroke-linejoin:miter;stroke-miterlimit:4;stroke-dasharray:none;stroke-opacity:1" />
        <path
           style="display:inline;opacity:1;fill:none;fill-opacity:1;fill-rule:nonzero;stroke:#000000;stroke-width:14.83988857;stroke-linecap:round;stroke-linejoin:miter;stroke-miterlimit:4;stroke-dasharray:none;stroke-dashoffset:0;stroke-opacity:1"
           id="path13864-9-5-6-1"
           d="m 969.47118,-86.215048 a 73.77343,73.77343 0 0 1 73.77042,73.103904 73.77343,73.77343 0 0 1 -72.4314,74.430825 73.77343,73.77343 0 0 1 -75.0851,-71.752909 73.77343,73.77343 0 0 1 71.06849,-75.73322"
           inkscape:connector-curvature="0" />
        <path
           style="display:inline;opacity:1;fill:none;fill-opacity:1;fill-rule:nonzero;stroke:#ffe25a;stroke-width:11.62321281;stroke-linecap:round;stroke-linejoin:miter;stroke-miterlimit:4;stroke-dasharray:none;stroke-dashoffset:0;stroke-opacity:1"
           id="path13864-1-8-3"
           d="m 969.45983,-86.215193 a 73.77343,73.77343 0 0 1 73.77037,73.103904 73.77343,73.77343 0 0 1 -72.43135,74.430796 73.77343,73.77343 0 0 1 -75.0851,-71.75288 73.77343,73.77343 0 0 1 71.06849,-75.733221"
           inkscape:connector-curvature="0" />
        <path
           style="display:inline;fill:#ffe25a;fill-opacity:1;fill-rule:evenodd;stroke:#000000;stroke-width:1.60869825;stroke-linecap:butt;stroke-linejoin:miter;stroke-miterlimit:4;stroke-dasharray:none;stroke-opacity:1"
           d="m 824.70055,-84.034315 c -5.77199,0.06721 -10.81808,0.850679 -17.15174,1.193753 -11.25985,0.609894 -34.50503,4.275451 -34.50503,4.275451 l -1.28161,1.651949 c 0,0 9.0064,5.495954 17.18448,10.189075 8.17809,4.693113 23.46256,13.416632 31.99523,17.763257 8.53268,4.346634 11.31823,6.143173 18.91222,8.798945 7.59398,2.655772 19.50088,5.521398 26.64318,6.445906 7.1423,0.92449 10.67075,0.561095 15.79779,0.31695 5.12703,-0.244153 9.89512,-1.561204 9.89512,-1.561204 0.11687,-1.285618 5.17634,-13.984439 7.06839,-16.741584 -1.83855,-2.632321 -0.60989,-1.213712 -7.71669,-8.486801 -12.51993,-12.812849 -36.67255,-19.049889 -51.10728,-22.15756 -6.31518,-1.359615 -11.24473,-1.740384 -15.73406,-1.688137 z"
           id="path4274-5-4-4-5"
           inkscape:connector-curvature="0"
           sodipodi:nodetypes="ssccsssssccsss" />
      </g>
      <path
         sodipodi:nodetypes="cccccc"
         inkscape:connector-curvature="0"
         id="path4456"
         d="m 793.51339,-71.617709 0,201.810369 353.62491,-0.30755 0,-204.674762 -175.63339,102.337383 z"
         style="fill:#ced8eb;fill-opacity:1;fill-rule:evenodd;stroke:#000000;stroke-width:4.40980864;stroke-linecap:round;stroke-linejoin:bevel;stroke-miterlimit:4;stroke-dasharray:none;stroke-opacity:1" />
      <path
         sodipodi:nodetypes="cccccc"
         inkscape:connector-curvature="0"
         id="path5287"
         d="m 793.01532,129.94693 170.38065,-106.718559 7.56126,-4.62373 7.81605,4.7775 169.15042,106.411019 z"
         style="fill:#d8e2f5;fill-opacity:1;fill-rule:evenodd;stroke:#000000;stroke-width:4.40980864;stroke-linecap:round;stroke-linejoin:bevel;stroke-miterlimit:4;stroke-dasharray:none;stroke-opacity:1" />
    </g>
  </g>
</svg>
