<svg xmlns="http://www.w3.org/2000/svg" height="320" width="320" xmlns:xlink="http://www.w3.org/1999/xlink">
<defs>
<radialGradient id="g" gradientUnits="userSpaceOnUse" cy="144" cx="121" r="152">
<stop stop-color="#fe0" offset="0"/>
<stop stop-color="#f80" offset="1"/>
</radialGradient>
<radialGradient id="b" gradientUnits="userSpaceOnUse" cy="102" cx="81" r="66">
<stop stop-color="#fff" stop-opacity=".8" offset="0"/>
<stop stop-color="#555" stop-opacity="0" offset="1"/>
</radialGradient>
</defs>
<circle r="150" cy="160" stroke="#a60" cx="160" stroke-width="5.3" fill="url(#g)"/>
<g stroke-width="11" stroke="#630" stroke-linecap="round">
<use x="-281" xlink:href="#a" transform="scale(-1,1)"/>
<g id="a">
<circle r="52" stroke="#a60" cy="132" cx="83" stroke-width="7" fill="#fff"/>
<circle cy="150" cx="93" r="26"/>
<ellipse id="c" rx="65" ry="63" cy="130" cx="75" fill="url(#b)"/>
<use xlink:href="#c" stroke="none" transform="matrix(.1423 0 0 .1423 81.47 120)"/>
</g>
<path d="m271 121 27-13c3-1 7 2 9 4 9 10 5 41-7 48m-226 58c37 42 78 52 129 6" fill="none"/>
</g>
</svg>